<?xml version="1.0" encoding="UTF-8" standalone="no"?>
<!-- Created with Inkscape (http://www.inkscape.org/) -->

<svg
   xmlns:dc="http://purl.org/dc/elements/1.1/"
   xmlns:cc="http://creativecommons.org/ns#"
   xmlns:rdf="http://www.w3.org/1999/02/22-rdf-syntax-ns#"
   xmlns:svg="http://www.w3.org/2000/svg"
   xmlns="http://www.w3.org/2000/svg"
   xmlns:sodipodi="http://sodipodi.sourceforge.net/DTD/sodipodi-0.dtd"
   xmlns:inkscape="http://www.inkscape.org/namespaces/inkscape"
   width="210mm"
   height="297mm"
   viewBox="0 0 210 297"
   version="1.1"
   id="svg443"
   inkscape:version="0.92.4 (f8dce91, 2019-08-02)"
   sodipodi:docname="wQ.svg">
  <defs
     id="defs437" />
  <sodipodi:namedview
     id="base"
     pagecolor="#ffffff"
     bordercolor="#666666"
     borderopacity="1.0"
     inkscape:pageopacity="0.0"
     inkscape:pageshadow="2"
     inkscape:zoom="0.35"
     inkscape:cx="400"
     inkscape:cy="560"
     inkscape:document-units="mm"
     inkscape:current-layer="layer1"
     showgrid="false"
     inkscape:window-width="1533"
     inkscape:window-height="845"
     inkscape:window-x="67"
     inkscape:window-y="27"
     inkscape:window-maximized="1" />
  <metadata
     id="metadata440">
    <rdf:RDF>
      <cc:Work
         rdf:about="">
        <dc:format>image/svg+xml</dc:format>
        <dc:type
           rdf:resource="http://purl.org/dc/dcmitype/StillImage" />
        <dc:title></dc:title>
      </cc:Work>
    </rdf:RDF>
  </metadata>
  <g
     inkscape:label="Calque 1"
     inkscape:groupmode="layer"
     id="layer1">
    <path
       inkscape:connector-curvature="0"
       d="m 143.80095,209.15197 c -8.67204,-14.38458 -19.40886,-32.21045 -20.02829,-54.47556 h 1.06678 c 0.2753,0 0.58504,-0.0688 0.82592,-0.17207 0.37855,-0.17205 8.53438,-3.88865 10.90888,-11.83802 h 8.84411 c 0.5506,0 1.0668,-0.20647 1.44535,-0.61942 0.37853,-0.37854 0.58502,-0.92915 0.58502,-1.44534 -0.10328,-6.50405 -3.30363,-13.48986 -9.53239,-20.71655 -0.37853,-0.44738 -0.96355,-0.72268 -1.54856,-0.72268 h -5.23076 c 0.75708,-6.26313 3.85422,-24.708436 15.34814,-35.169942 0.51619,-0.481784 0.75708,-1.204448 0.61945,-1.89271 -0.13767,-0.688248 -0.61945,-1.273278 -1.27328,-1.514157 -0.17207,-0.0688 -4.12955,-1.548586 -9.15384,-1.823893 -0.92915,-4.645731 -4.5425,-17.103193 -16.89672,-22.471599 0.0688,-0.550602 0.10324,-1.101203 0.10324,-1.686233 0,-8.190258 -6.67609,-14.866354 -14.86637,-14.866354 -8.19026,0 -14.866359,6.676096 -14.866359,14.866354 0,0.550615 0.03441,1.135631 0.103231,1.686233 -12.354221,5.368406 -15.93316,17.825868 -16.896722,22.471599 -5.024279,0.275307 -8.981759,1.755063 -9.153823,1.823893 -0.653846,0.240879 -1.135626,0.825909 -1.273277,1.514157 -0.137653,0.688262 0.103232,1.410926 0.619431,1.89271 11.493902,10.461506 14.625473,28.906812 15.348144,35.169942 h -5.230758 c -0.585019,0 -1.170038,0.2409 -1.548579,0.72268 -6.228731,7.22669 -9.463542,14.2125 -9.532368,20.71655 0,0.5506 0.206477,1.0668 0.585019,1.44534 0.378542,0.37853 0.894735,0.61942 1.445342,0.61942 h 8.844108 c 2.340076,7.94937 10.530341,11.66597 10.908884,11.83802 0.275304,0.10327 0.550606,0.17207 0.825909,0.17207 h 1.066798 c -0.619431,22.26511 -11.35625,40.09098 -20.028294,54.47556 -5.540473,9.18824 -10.323864,17.1032 -11.046534,24.02019 -1.342102,12.38863 4.852215,17.41291 7.708484,19.03031 v 12.76717 c 0,1.13563 0.929148,2.03036 2.030361,2.03036 h 80.147593 c 1.13563,0 2.03038,-0.92914 2.03038,-2.03036 v -12.76717 c 2.82184,-1.6174 9.05058,-6.6761 7.70847,-19.03031 -0.68826,-6.91699 -5.47165,-14.83195 -11.01212,-24.02019 z M 105.05204,43.866985 c 5.95343,0 10.77124,4.817801 10.77124,10.771226 0,5.953423 -4.81781,10.77123 -10.77124,10.77123 -5.953426,0 -10.77123,-4.817807 -10.77123,-10.77123 0,-5.919011 4.852216,-10.771226 10.77123,-10.771226 z m -13.696323,16.48377 c 2.236834,5.368407 7.536419,9.153815 13.696323,9.153815 6.1599,0 11.45949,-3.785408 13.69633,-9.153815 9.42913,4.473668 12.73275,14.178097 13.76515,18.514118 -5.05869,0.481785 -9.15382,2.512142 -12.07891,5.919009 -2.75304,-2.959498 -8.43117,-8.190258 -15.17609,-8.912935 -0.13765,0 -0.30971,0 -0.44737,0 -6.744922,0.722677 -12.423048,5.953437 -15.176078,8.912935 -2.925093,-3.406867 -7.020227,-5.437224 -12.078919,-5.919009 1.066798,-4.336021 4.336022,-14.04045 13.799564,-18.514118 z m -22.47161,23.194264 c 1.617406,-0.37854 3.751003,-0.688249 6.022253,-0.722664 0,0 0,0 0,0 0.06883,0 0.172065,0 0.240891,0 0.03441,0 0.103246,0 0.137651,0 5.746952,0.03447 9.979736,2.168004 12.526289,6.297548 0.344129,0.585017 0.963561,0.929153 1.651816,0.963569 0.653844,0.03447 1.307688,-0.275308 1.720644,-0.791508 0.06883,-0.0688 6.435208,-8.396734 13.902809,-9.36029 7.43317,0.963556 13.83397,9.257059 13.9028,9.36029 0.41296,0.550616 1.03238,0.860325 1.72064,0.791508 0.68826,-0.03447 1.27328,-0.378552 1.65182,-0.963569 2.54656,-4.129544 6.77935,-6.263133 12.52629,-6.297548 0.0344,0 0.10327,0 0.13765,0 0.0688,0 0.17206,0 0.24088,0 0,0 0,0 0,0 2.27126,0 4.40486,0.344124 6.02228,0.722664 -10.84008,11.941262 -13.5931,29.767131 -14.21253,35.651741 H 83.131039 C 82.477194,113.31215 79.724163,95.486281 68.884107,83.545019 Z M 66.88816,138.6056 c 0.653845,-4.74898 3.269222,-9.9109 7.777311,-15.31371 h 6.538447 47.661842 6.53844 c 4.5425,5.43721 7.1579,10.56473 7.77732,15.31371 h -8.2591 -59.775169 z m 18.858257,12.01009 c -1.307688,-0.68825 -5.919015,-3.30363 -7.880548,-7.94937 h 54.406751 c -1.92711,4.57691 -6.53843,7.26112 -7.88053,7.94937 z M 143.07828,262.9737 H 67.025811 v -9.94532 h 76.052469 z m 1.61741,-14.04044 H 65.408407 c -1.376516,-0.65386 -7.295531,-4.2328 -6.09108,-15.31374 0.653844,-6.02225 5.230757,-13.59308 10.495927,-22.36836 8.94735,-14.83195 19.993883,-33.17399 20.613314,-56.57475 h 29.250952 c 0.61942,23.36633 11.66597,41.7428 20.61331,56.57475 5.29959,8.77528 9.84209,16.34611 10.49594,22.36836 1.23885,11.04654 -4.64575,14.62547 -6.09108,15.31374 z"
       id="path73"
       style="stroke-width:0.34412864;fill:#333333" />
    <path
       style="fill:#cccccc;stroke-width:2.85714293"
       d="m 312.79315,432.01747 c -6.56841,-37.71861 -21.3181,-75.32534 -40.52937,-103.33621 l -8.11939,-11.83843 9.9278,-1.86247 c 20.06478,-3.76417 42.62825,4.04773 53.27161,18.44365 3.46623,4.68833 8.36419,8.52425 10.88435,8.52425 2.52015,0 10.31407,-5.89182 17.31983,-13.09292 30.34231,-31.18839 51.74848,-31.37727 83.20856,-0.7342 7.80767,7.60491 15.54625,13.82712 17.19682,13.82712 1.65057,0 7.87731,-5.02466 13.83719,-11.16592 12.62313,-13.00727 36.12452,-20.18362 51.41232,-15.69919 l 8.79338,2.57939 -7.51273,10 c -16.51729,21.98573 -34.97041,68.35371 -39.79711,100 -3.84906,25.23629 5.07423,22.85715 -85.7285,22.85715 h -80.94274 z"
       id="path451"
       inkscape:connector-curvature="0"
       transform="scale(0.26458333)" />
    <path
       style="fill:#cccccc;stroke-width:2.85714293"
       d="m 332.60228,311.98543 c -1.93929,-2.3367 -11.12537,-7.01942 -20.41351,-10.40604 -18.74943,-6.83639 -18.80224,-7.04596 -7.44442,-29.54347 8.62661,-17.08755 16.22884,-26.33612 28.81435,-35.05441 9.23009,-6.3939 11.64918,-7.07757 12.75485,-3.60468 2.99287,9.40061 22.96907,24.92722 36.43248,28.31734 21.49141,5.4116 39.10641,-0.0174 55.85785,-17.21542 l 13.39535,-13.75249 11.29242,8.18018 c 15.39106,11.14923 38.34342,49.59668 33.90015,56.78605 -0.90438,1.4633 -5.82861,3.49741 -10.94274,4.52024 -5.11413,1.02283 -14.12593,5.05438 -20.02623,8.95901 l -10.72781,7.09933 -16.95351,-12.48046 c -31.19439,-22.964 -53.54172,-22.61934 -84.80543,1.30797 -16.55323,12.66882 -16.38161,12.61289 -21.1338,6.88685 z"
       id="path453"
       inkscape:connector-curvature="0"
       transform="scale(0.26458333)" />
    <path
       style="fill:#cccccc;stroke-width:2.85714293"
       d="m 376.28157,239.20678 c -17.37665,-10.59516 -23.46468,-36.04922 -12.57332,-52.5691 21.95209,-33.2967 71.69896,-19.70021 71.69896,19.59629 0,30.22308 -33.23663,48.75827 -59.12564,32.97281 z"
       id="path455"
       inkscape:connector-curvature="0"
       transform="scale(0.26458333)" />
    <path
       style="fill:#cccccc;stroke-width:2.85714293"
       d="m 255.45648,518.37683 c 0.0418,-5.35127 12.93906,-32.01912 20.3009,-41.97655 l 6.4601,-8.73774 h 115.21246 115.21247 l 9.37193,15 c 5.15456,8.25 10.9243,18.59621 12.82165,22.99158 7.49161,17.35493 16.47444,16.29414 -137.97885,16.29414 -111.25298,0 -141.42261,-0.76201 -141.40066,-3.57143 z"
       id="path457"
       inkscape:connector-curvature="0"
       transform="scale(0.26458333)" />
    <path
       style="fill:#cccccc;stroke-width:2.85714293"
       d="m 309.12031,555.51969 -12.26317,-12.14286 98.29531,-0.75231 c 54.06242,-0.41377 99.05473,0.007 99.9829,0.93528 0.92817,0.92817 -3.71922,6.73099 -10.32753,12.89516 l -12.01512,11.20758 h -75.70461 -75.70462 z"
       id="path459"
       inkscape:connector-curvature="0"
       transform="scale(0.26458333)" />
    <path
       style="fill:#cccccc;stroke-width:2.85714293"
       d="m 239.14079,932.66254 c -10.32114,-11.33165 -13.36683,-20.28423 -13.414,-39.42931 -0.0559,-22.67709 7.72557,-40.4299 47.06308,-107.37097 29.98098,-51.01899 42.02253,-75.97447 53.81015,-111.51874 7.30427,-22.02523 9.96827,-35.10285 16.36065,-80.31493 l 1.32172,-9.34824 53.43023,0.77681 53.43024,0.77681 1.97817,21.8092 c 5.03227,55.48034 23.89588,102.52608 78.50857,195.80002 26.02523,44.44894 38.10306,72.70884 38.06874,89.0739 -0.0257,12.75317 -5.53323,28.39651 -13.20497,37.51388 l -7.28706,8.66014 H 397.1012 244.99608 Z"
       id="path461"
       inkscape:connector-curvature="0"
       transform="scale(0.26458333)" />
    <path
       style="fill:#cccccc;stroke-width:2.85714293"
       d="m 255.42857,974.8054 v -18.57143 h 141.42857 141.42857 v 18.57143 18.57143 H 396.85714 255.42857 Z"
       id="path463"
       inkscape:connector-curvature="0"
       transform="scale(0.26458333)" />
  </g>
</svg>
