<?xml version="1.0" encoding="UTF-8" standalone="no"?>
<!-- Created with Inkscape (http://www.inkscape.org/) -->

<svg
   xmlns:dc="http://purl.org/dc/elements/1.1/"
   xmlns:cc="http://creativecommons.org/ns#"
   xmlns:rdf="http://www.w3.org/1999/02/22-rdf-syntax-ns#"
   xmlns:svg="http://www.w3.org/2000/svg"
   xmlns="http://www.w3.org/2000/svg"
   xmlns:sodipodi="http://sodipodi.sourceforge.net/DTD/sodipodi-0.dtd"
   xmlns:inkscape="http://www.inkscape.org/namespaces/inkscape"
   width="210mm"
   height="297mm"
   viewBox="0 0 210 297"
   version="1.1"
   id="svg188"
   sodipodi:docname="bR.svg"
   inkscape:version="0.92.4 (f8dce91, 2019-08-02)">
  <defs
     id="defs182" />
  <sodipodi:namedview
     id="base"
     pagecolor="#ffffff"
     bordercolor="#666666"
     borderopacity="1.0"
     inkscape:pageopacity="0.0"
     inkscape:pageshadow="2"
     inkscape:zoom="0.35"
     inkscape:cx="400"
     inkscape:cy="560"
     inkscape:document-units="mm"
     inkscape:current-layer="layer1"
     showgrid="false"
     inkscape:window-width="1533"
     inkscape:window-height="845"
     inkscape:window-x="67"
     inkscape:window-y="27"
     inkscape:window-maximized="1" />
  <metadata
     id="metadata185">
    <rdf:RDF>
      <cc:Work
         rdf:about="">
        <dc:format>image/svg+xml</dc:format>
        <dc:type
           rdf:resource="http://purl.org/dc/dcmitype/StillImage" />
        <dc:title></dc:title>
      </cc:Work>
    </rdf:RDF>
  </metadata>
  <g
     inkscape:label="Calque 1"
     inkscape:groupmode="layer"
     id="layer1">
    <path
       style="stroke-width:0.19759047;fill:#4d4d4d"
       inkscape:connector-curvature="0"
       d="m 28.33043,43.060793 c -4.74219,4.939736 -5.33494,6.915653 -5.33494,20.35181 v 14.819266 l 14.81926,14.621718 14.81927,14.621663 v 34.77593 34.57832 l -18.7711,18.7711 -18.77104,18.7711 v 13.04095 c 0,20.94462 -6.5205096,19.56145 90.29881,19.56145 96.22656,0 89.50845,1.58077 89.50845,-19.9566 V 214.3717 L 177.116,196.58856 159.33286,178.80542 v -35.56629 -35.76388 l 13.83137,-13.633761 13.8313,-13.633703 V 63.215 c 0,-15.214471 -0.39543,-17.585537 -4.54458,-21.339768 -3.75418,-3.556629 -6.91566,-4.346984 -18.3759,-4.346984 -14.81926,0 -18.57349,1.778314 -18.57349,9.28672 0,3.951834 -0.98796,4.544587 -6.91566,4.544587 -5.92775,0 -6.91571,-0.592753 -6.91571,-4.544587 0,-8.101159 -3.35902,-9.28672 -25.68675,-9.28672 -22.32773,0 -25.68675,1.185561 -25.68675,9.28672 0,3.951834 -0.98796,4.544587 -6.91566,4.544587 -5.33494,0 -6.91565,-0.790356 -6.91565,-3.556629 0,-7.113256 -6.3229,-10.274678 -19.95666,-10.274678 -11.46024,0 -13.43616,0.592752 -18.17829,5.532545 z m 117.17113,68.563837 v 6.91571 l -39.91327,-0.39543 -40.11087,-0.59275 -0.59275,-6.52051 -0.59281,-6.3229 h 40.50608 40.70362 z m 0,64.21691 v 5.92775 H 104.99548 64.48946 v -5.92775 -5.92769 h 40.50602 40.50608 z"
       id="path18" />
    <path
       style="fill:#000000;fill-opacity:1;stroke-width:2.85714293"
       d="m 377.71198,444.95112 c -77.49457,-0.97709 -125.8588,-2.65814 -127.49386,-4.43143 -1.44892,-1.57143 -3.36594,-12.17858 -4.26003,-23.57143 l -1.62562,-20.71429 h 152.69091 152.69091 v 25.71429 25.71428 l -23.57143,-0.56856 c -12.96429,-0.31271 -79.75818,-1.27699 -148.43088,-2.14286 z"
       id="path10"
       inkscape:connector-curvature="0"
       transform="scale(0.26458333)" />
    <path
       style="fill:#000000;fill-opacity:1;stroke-width:2.85714293"
       d="m 244,664.8054 v -20 h 152.85714 152.85715 v 20 20 H 396.85714 244 Z"
       id="path12"
       inkscape:connector-curvature="0"
       transform="scale(0.26458333)" />
  </g>
</svg>
